USER         PID %CPU %MEM    VSZ   RSS TTY      STAT START   TIME COMMAND
root           1  0.0  0.5 100912 10708 ?        Ss   05:23   0:01 /sbin/init splash
root           2  0.0  0.0      0     0 ?        S    05:23   0:00 [kthreadd]
root           3  0.0  0.0      0     0 ?        I<   05:23   0:00 [rcu_gp]
root           4  0.0  0.0      0     0 ?        I<   05:23   0:00 [rcu_par_gp]
root           6  0.0  0.0      0     0 ?        I<   05:23   0:00 [kworker/0:0H-kblockd]
root           9  0.0  0.0      0     0 ?        I<   05:23   0:00 [mm_percpu_wq]
root          10  0.0  0.0      0     0 ?        S    05:23   0:00 [ksoftirqd/0]
root          11  0.0  0.0      0     0 ?        I    05:23   0:00 [rcu_sched]
root          12  0.0  0.0      0     0 ?        S    05:23   0:00 [migration/0]
root          13  0.0  0.0      0     0 ?        S    05:23   0:00 [cpuhp/0]
root          14  0.0  0.0      0     0 ?        S    05:23   0:00 [cpuhp/1]
root          15  0.0  0.0      0     0 ?        S    05:23   0:00 [migration/1]
root          16  0.0  0.0      0     0 ?        S    05:23   0:00 [ksoftirqd/1]
root          18  0.0  0.0      0     0 ?        I<   05:23   0:00 [kworker/1:0H-kblockd]
root          19  0.0  0.0      0     0 ?        S    05:23   0:00 [kdevtmpfs]
root          20  0.0  0.0      0     0 ?        I<   05:23   0:00 [netns]
root          21  0.0  0.0      0     0 ?        S    05:23   0:00 [kauditd]
root          22  0.0  0.0      0     0 ?        S    05:23   0:00 [khungtaskd]
root          23  0.0  0.0      0     0 ?        S    05:23   0:00 [oom_reaper]
root          24  0.0  0.0      0     0 ?        I<   05:23   0:00 [writeback]
root          25  0.0  0.0      0     0 ?        S    05:23   0:00 [kcompactd0]
root          26  0.0  0.0      0     0 ?        SN   05:23   0:00 [ksmd]
root          27  0.0  0.0      0     0 ?        SN   05:23   0:00 [khugepaged]
root          29  0.0  0.0      0     0 ?        I    05:23   0:04 [kworker/1:1-cgroup_destroy]
root          30  0.0  0.0      0     0 ?        I    05:23   0:00 [kworker/u4:1-events_unbound]
root          72  0.0  0.0      0     0 ?        I<   05:23   0:00 [kintegrityd]
root          73  0.0  0.0      0     0 ?        I<   05:23   0:00 [kblockd]
root          74  0.0  0.0      0     0 ?        I<   05:23   0:00 [blkcg_punt_bio]
root          75  0.0  0.0      0     0 ?        I<   05:23   0:00 [edac-poller]
root          76  0.0  0.0      0     0 ?        I<   05:23   0:00 [devfreq_wq]
root          78  0.0  0.0      0     0 ?        S    05:23   0:00 [kswapd0]
root          79  0.0  0.0      0     0 ?        I<   05:23   0:00 [kthrotld]
root          80  0.0  0.0      0     0 ?        I<   05:23   0:00 [acpi_thermal_pm]
root          81  0.0  0.0      0     0 ?        I<   05:23   0:00 [ipv6_addrconf]
root          92  0.0  0.0      0     0 ?        I<   05:23   0:00 [kstrp]
root          96  0.0  0.0      0     0 ?        I<   05:23   0:00 [kworker/u5:0]
root         140  0.0  0.0      0     0 ?        S    05:23   0:00 [irq/18-vmwgfx]
root         141  0.0  0.0      0     0 ?        I<   05:23   0:00 [ttm_swap]
root         142  0.0  0.0      0     0 ?        I<   05:23   0:00 [cryptd]
root         143  0.0  0.0      0     0 ?        I<   05:23   0:00 [ata_sff]
root         147  0.0  0.0      0     0 ?        S    05:23   0:00 [scsi_eh_0]
root         148  0.0  0.0      0     0 ?        S    05:23   0:00 [scsi_eh_1]
root         149  0.0  0.0      0     0 ?        I<   05:23   0:00 [scsi_tmf_0]
root         150  0.0  0.0      0     0 ?        I<   05:23   0:00 [scsi_tmf_1]
root         151  0.0  0.0      0     0 ?        S    05:23   0:00 [scsi_eh_2]
root         153  0.0  0.0      0     0 ?        I<   05:23   0:00 [scsi_tmf_2]
root         228  0.0  0.0      0     0 ?        I<   05:23   0:00 [kworker/1:1H-kblockd]
root         232  0.0  0.0      0     0 ?        I<   05:23   0:00 [kworker/0:1H-kblockd]
root         275  0.0  0.0      0     0 ?        S    05:23   0:00 [jbd2/sda1-8]
root         276  0.0  0.0      0     0 ?        I<   05:23   0:00 [ext4-rsv-conver]
root         320  0.0  0.9  50860 19752 ?        Ss   05:23   0:01 /lib/systemd/systemd-journald
root         330  0.0  0.0      0     0 ?        I<   05:23   0:00 [rpciod]
root         332  0.0  0.0      0     0 ?        I<   05:23   0:00 [xprtiod]
root         344  0.0  0.3  22172  6556 ?        Ss   05:23   0:00 /lib/systemd/systemd-udevd
root         368  0.0  0.0      0     0 ?        I<   05:23   0:00 [iprt-VBoxWQueue]
root         478  0.0  0.2   8096  5400 ?        Ss   05:23   0:01 /usr/sbin/haveged --Foreground --verbose=1 -w 1024
root         481  0.0  0.2   9568  5576 ?        Ss   05:23   0:00 /sbin/dhclient -4 -v -i -pf /run/dhclient.eth0.pid -lf /var/lib/dhcp/dhclient.eth0.leases -I -df /var/lib/dhcp/dhclient6.eth0.leases eth0
root         482  0.0  0.1   6584  2892 ?        Ss   05:23   0:00 /usr/sbin/cron -f
message+     483  0.0  0.2   7936  5132 ?        Ss   05:23   0:02 /usr/bin/dbus-daemon --system --address=systemd: --nofork --nopidfile --systemd-activation --syslog-only
root         484  0.0  0.8 252724 16748 ?        Ssl  05:23   0:00 /usr/sbin/NetworkManager --no-daemon
root         486  0.0  0.4 234576  9212 ?        Ssl  05:23   0:00 /usr/lib/policykit-1/polkitd --no-debug
root         489  0.0  0.1 221784  3952 ?        Ssl  05:23   0:00 /usr/sbin/rsyslogd -n -iNONE
root         491  0.0  0.2  10420  5668 ?        Ss   05:23   0:00 /usr/sbin/smartd -n
root         513  0.0  0.5 313280 10384 ?        Ssl  05:23   0:00 /usr/sbin/ModemManager --filter-policy=strict
root         559  0.0  0.0 104300   512 ?        S    05:23   0:00 /usr/bin/VBoxClient --vmsvga
root         562  0.0  0.1 104300  2664 ?        S    05:23   0:00 /usr/bin/VBoxClient --vmsvga
root         569  0.0  0.1 292804  3252 ?        Sl   05:23   0:01 /usr/sbin/VBoxService
root         594  0.0  0.3  16076  7324 ?        Ss   05:23   0:00 /lib/systemd/systemd-logind
root         800  0.0  0.3 310064  7468 ?        SLsl 05:23   0:00 /usr/sbin/lightdm
root         806  0.0  0.3  11972  6848 ?        Ss   05:23   0:00 sshd: /usr/sbin/sshd -D [listener] 0 of 10-100 startups
root         810  0.0  0.0   5616  1624 tty1     Ss+  05:23   0:00 /sbin/agetty -o -p -- \u --noclear tty1 linux
root         811  0.1  5.7 610412 116960 tty7    Ssl+ 05:23   0:10 /usr/lib/xorg/Xorg :0 -seat seat0 -auth /var/run/lightdm/root/:0 -nolisten tcp vt7 -novtswitch
rtkit        873  0.0  0.1 152692  2884 ?        SNsl 05:23   0:00 /usr/libexec/rtkit-daemon
root         887  0.0  0.3 163552  8124 ?        Sl   05:23   0:00 lightdm --session-child 14 21
kali         892  0.0  0.4  17992  9504 ?        Ss   05:23   0:00 /lib/systemd/systemd --user
kali         893  0.0  0.1 102276  2820 ?        S    05:23   0:00 (sd-pam)
kali         911  0.0  1.1 632636 24292 ?        S<sl 05:23   0:00 /usr/bin/pulseaudio --daemonize=no
kali         917  0.0  1.7 292988 34936 ?        Ssl  05:23   0:00 xfce4-session
kali         925  0.0  0.2   7516  4688 ?        Ss   05:23   0:02 /usr/bin/dbus-daemon --session --address=systemd: --nofork --nopidfile --systemd-activation --syslog-only
kali         961  0.0  0.0  30356   476 ?        S    05:23   0:00 /usr/bin/VBoxClient --display
kali         965  0.0  0.0  30356   476 ?        S    05:23   0:00 /usr/bin/VBoxClient --seamless
kali         969  0.0  0.1 162592  2920 ?        Sl   05:23   0:00 /usr/bin/VBoxClient --seamless
kali         970  0.0  0.1  30488  3552 ?        S    05:23   0:00 /usr/bin/VBoxClient --display
kali         981  0.0  0.0  30356   476 ?        S    05:23   0:00 /usr/bin/VBoxClient --draganddrop
kali         983  0.3  0.1 163108  2852 ?        Sl   05:23   0:16 /usr/bin/VBoxClient --draganddrop
kali         984  0.0  0.0   5888   476 ?        Ss   05:23   0:00 /usr/bin/ssh-agent x-session-manager
kali        1002  0.0  0.3 309116  6444 ?        Ssl  05:23   0:00 /usr/libexec/at-spi-bus-launcher
kali        1007  0.0  0.2   7180  4304 ?        S    05:23   0:00 /usr/bin/dbus-daemon --config-file=/usr/share/defaults/at-spi2/accessibility.conf --nofork --print-address 3
kali        1011  0.0  0.2 229964  5744 ?        Sl   05:23   0:00 /usr/lib/x86_64-linux-gnu/xfce4/xfconf/xfconfd
kali        1017  0.0  0.3 170848  6684 ?        Sl   05:23   0:00 /usr/libexec/at-spi2-registryd --use-gnome-session
kali        1023  0.0  0.1  80976  3500 ?        SLs  05:23   0:00 /usr/bin/gpg-agent --supervised
kali        1025  0.0  4.5 689820 93044 ?        Sl   05:23   0:02 xfwm4 --display :0.0 --sm-client-id 20ee3f38d-9a2f-4c70-a010-61df725c3d42
kali        1028  0.0  0.3 236820  7512 ?        Ssl  05:23   0:00 /usr/libexec/gvfsd
kali        1041  0.0  0.9 239568 20280 ?        Ssl  05:23   0:00 xfsettingsd --display :0.0 --sm-client-id 2d624ba03-e95d-487a-bb11-dfcdd089deb0
root        1045  0.0  0.4 249376  9920 ?        Ssl  05:23   0:01 /usr/lib/upower/upowerd
kali        1062  0.0  2.4 335224 49804 ?        Sl   05:23   0:01 xfce4-panel --display :0.0 --sm-client-id 24f754580-d9da-4734-9be7-d463dae5b20f
kali        1070  0.0  1.0 354432 21956 ?        Sl   05:23   0:00 Thunar --sm-client-id 2f2d21d96-7df1-490f-8262-af9fcf35cbf3 --daemon
kali        1075  0.0  2.8 345108 57572 ?        Sl   05:23   0:00 xfdesktop --display :0.0 --sm-client-id 204eab02a-05f0-4b67-8f3f-024d0a984eee
kali        1078  0.0  1.9 322180 39156 ?        Sl   05:23   0:00 /usr/lib/x86_64-linux-gnu/xfce4/panel/wrapper-2.0 /usr/lib/x86_64-linux-gnu/xfce4/panel/plugins/libwhiskermenu.so 1 25165831 whiskermenu Whisker Menu Show a menu to easily access installed applications
kali        1081  0.0  1.0 205752 21672 ?        Sl   05:23   0:00 /usr/lib/x86_64-linux-gnu/xfce4/panel/wrapper-2.0 /usr/lib/x86_64-linux-gnu/xfce4/panel/plugins/libsystray.so 15 25165833 systray Notification Area Area where notification icons appear
kali        1082  0.1  1.7 513416 35304 ?        Sl   05:23   0:06 /usr/lib/x86_64-linux-gnu/xfce4/panel/wrapper-2.0 /usr/lib/x86_64-linux-gnu/xfce4/panel/plugins/libpulseaudio-plugin.so 16 25165834 pulseaudio PulseAudio Plugin Adjust the audio volume of the PulseAudio sound system
kali        1083  0.0  1.6 245872 32748 ?        Sl   05:23   0:00 /usr/lib/x86_64-linux-gnu/xfce4/panel/wrapper-2.0 /usr/lib/x86_64-linux-gnu/xfce4/panel/plugins/libnotification-plugin.so 17 25165835 notification-plugin Notification Plugin Notification plugin for the Xfce panel
kali        1084  0.0  1.6 246024 33980 ?        Sl   05:23   0:00 /usr/lib/x86_64-linux-gnu/xfce4/panel/wrapper-2.0 /usr/lib/x86_64-linux-gnu/xfce4/panel/plugins/libxfce4powermanager.so 18 25165836 power-manager-plugin Power Manager Plugin Display the battery levels of your devices and control the brightness of your display
kali        1085  0.0  1.6 245752 33256 ?        Sl   05:23   0:00 /usr/lib/x86_64-linux-gnu/xfce4/panel/wrapper-2.0 /usr/lib/x86_64-linux-gnu/xfce4/panel/plugins/libactions.so 20 25165837 actions Action Buttons Log out, lock or other system actions
kali        1098  0.0  1.6 318676 33100 ?        Ssl  05:23   0:00 /usr/lib/x86_64-linux-gnu/xfce4/notifyd/xfce4-notifyd
kali        1106  0.0  0.9 206140 19396 ?        Ssl  05:23   0:00 xfce4-power-manager --restart --sm-client-id 2ad6e7e96-4962-4934-a27e-bff9eef79274
kali        1107  0.0  0.4 859312  8772 ?        Sl   05:23   0:00 xiccd
kali        1108  0.0  2.0 400392 41660 ?        Sl   05:23   0:00 nm-applet
kali        1114  0.0  0.2 234016  4836 ?        Sl   05:23   0:00 /usr/libexec/geoclue-2.0/demos/agent
kali        1116  0.0  1.1 276340 22860 ?        Sl   05:23   0:00 light-locker
colord      1119  0.0  0.7 243284 14316 ?        Ssl  05:23   0:00 /usr/libexec/colord
kali        1123  0.0  0.0  22796   356 ?        Ssl  05:23   0:00 xcape -e Super_L Control_L Escape
kali        1125  0.0  2.0  70472 41392 ?        S    05:23   0:00 /usr/bin/python3 /usr/share/system-config-printer/applet.py
kali        1132  0.0  0.7 197612 16096 ?        Sl   05:23   0:00 /usr/lib/policykit-1-gnome/polkit-gnome-authentication-agent-1
kali        1138  0.0  0.2 155852  5268 ?        Sl   05:23   0:00 /usr/libexec/dconf-service
kali        1185  0.0  0.6 346100 13584 ?        Ssl  05:23   0:00 /usr/libexec/gvfs-udisks2-volume-monitor
root        1188  0.0  0.6 392240 13860 ?        Ssl  05:23   0:00 /usr/lib/udisks2/udisksd
kali        1202  0.0  0.3 233032  6228 ?        Ssl  05:23   0:00 /usr/libexec/gvfs-goa-volume-monitor
kali        1206  0.0  0.3 235076  6896 ?        Ssl  05:23   0:00 /usr/libexec/gvfs-gphoto2-volume-monitor
kali        1210  0.0  0.2 232844  6072 ?        Ssl  05:23   0:00 /usr/libexec/gvfs-mtp-volume-monitor
kali        1214  0.0  0.3 313884  7484 ?        Ssl  05:23   0:00 /usr/libexec/gvfs-afc-volume-monitor
kali        1223  0.0  0.3 310796  7748 ?        Sl   05:23   0:00 /usr/libexec/gvfsd-trash --spawner :1.11 /org/gtk/gvfs/exec_spaw/0
kali        1228  0.0  0.2 159308  5900 ?        Ssl  05:23   0:00 /usr/libexec/gvfsd-metadata
kali        1234  0.1  4.0 697220 83180 ?        Sl   05:24   0:08 /usr/bin/qterminal
kali        1237  0.0  0.2   8796  5592 pts/0    Ss   05:24   0:00 /bin/bash
kali        1253  0.7 14.7 2847240 301800 ?      Sl   05:24   0:39 /usr/bin/x-www-browser
kali        1352  0.0  4.9 2395940 100656 ?      Sl   05:24   0:02 /usr/lib/firefox-esr/firefox-esr -contentproc -childID 2 -isForBrowser -prefsLen 5684 -prefMapSize 182195 -parentBuildID 20200305175243 -greomni /usr/lib/firefox-esr/omni.ja -appomni /usr/lib/firefox-esr/browser/omni.ja -appdir /usr/lib/firefox-esr/browser 1253 true tab
kali        1394  0.0  5.9 2416768 120580 ?      Sl   05:24   0:01 /usr/lib/firefox-esr/firefox-esr -contentproc -childID 3 -isForBrowser -prefsLen 6352 -prefMapSize 182195 -parentBuildID 20200305175243 -greomni /usr/lib/firefox-esr/omni.ja -appomni /usr/lib/firefox-esr/browser/omni.ja -appdir /usr/lib/firefox-esr/browser 1253 true tab
kali        1429  1.7 19.0 2813372 387788 ?      Sl   05:24   1:31 /usr/lib/firefox-esr/firefox-esr -contentproc -childID 4 -isForBrowser -prefsLen 6352 -prefMapSize 182195 -parentBuildID 20200305175243 -greomni /usr/lib/firefox-esr/omni.ja -appomni /usr/lib/firefox-esr/browser/omni.ja -appdir /usr/lib/firefox-esr/browser 1253 true tab
kali        1602  0.0  3.4 2367796 70108 ?       Sl   05:29   0:00 /usr/lib/firefox-esr/firefox-esr -contentproc -childID 6 -isForBrowser -prefsLen 6710 -prefMapSize 182195 -parentBuildID 20200305175243 -greomni /usr/lib/firefox-esr/omni.ja -appomni /usr/lib/firefox-esr/browser/omni.ja -appdir /usr/lib/firefox-esr/browser 1253 true tab
root        1821  0.0  0.0      0     0 ?        I    05:49   0:00 [kworker/u4:0-events_unbound]
root        2300  0.0  0.0      0     0 ?        I    06:39   0:00 [kworker/0:1-events]
root        2314  0.0  0.0      0     0 ?        I    06:44   0:00 [kworker/0:2-events]
root        2325  0.0  0.0      0     0 ?        I    06:45   0:00 [kworker/1:2-ata_sff]
root        2379  0.1  0.0      0     0 ?        I    06:50   0:00 [kworker/1:0-events]
root        2382  0.0  0.0      0     0 ?        I    06:50   0:00 [kworker/u4:2-events_unbound]
root        2383  0.0  0.0      0     0 ?        I    06:50   0:00 [kworker/0:0-cgroup_destroy]
root        2384  0.0  0.0      0     0 ?        I    06:50   0:00 [kworker/1:3-ata_sff]
root        2385  0.0  0.0      0     0 ?        I    06:50   0:00 [kworker/0:3-events]
root        2403  0.0  0.0      0     0 ?        I    06:51   0:00 [kworker/0:4-events]
root        2404  0.0  0.0      0     0 ?        I    06:51   0:00 [kworker/0:5]
kali        2405  0.0  0.1   6796  3320 pts/0    S+   06:52   0:00 /bin/bash ./sysinfo.sh
kali        2409  0.0  0.1   8648  3100 pts/0    R+   06:52   0:00 ps aux
